OurRagingPlanet PANEL :

	- Links :
		- ID
		- Display
		- Model
		- Show in Menu
		- Edit
	- Roles :
		- ID
		- Name
		- Description
		- Name
		- Edit
	- Permissions :
		- ID
		- Url
		- Description
		- Edit
	- Target Zones :
		- Name
		- Created
		- Updated
		- Add Simulation To This Location
		- Show Simulations For This Location
		- Download Report
		- Edit
	- Simulations
		- Title
		- Target Zone
		- From
		- To
		- Created
		- Updated
		- Status
		- Download Report
		- WEB LINK FOR DISTRIBUTION
		- Run
		- Edit
